…
Relative abundance of countries with low life expectancy over time by continent.
--------------------------------------------------------------------------------

I want to determine how many countries on each continent have a life expectancy less than the average life expectancy worldwide of 71.5 years over the period 2010 to 2015 (according to the United Nations World population Prospects 2015 Revision).

``` r
gapminder %>% 
  filter(lifeExp < 71.5) %>%
  group_by(continent, year) %>%
  arrange(continent, year) %>%
  summarize(n_countries = n_distinct(country)) %>%
  rename("Continent" = continent, "Number of Countries" = n_countries, "Year" = year)
```

    ## # A tibble: 51 x 3
    ## # Groups:   Continent [5]
    ##    Continent  Year `Number of Countries`
    ##       <fctr> <int>                 <int>
    ##  1    Africa  1952                    52
    ##  2    Africa  1957                    52
    ##  3    Africa  1962                    52
    ##  4    Africa  1967                    52
    ##  5    Africa  1972                    52
    ##  6    Africa  1977                    52
    ##  7    Africa  1982                    52
    ##  8    Africa  1987                    51
    ##  9    Africa  1992                    51
    ## 10    Africa  1997                    49
    ## # ... with 41 more rows
…
